{
  "name": "Account",
  "plural": "Accounts",
  "base": "PersistedModel",
  "idInjection": true,
  "options": {
    "validateUpsert": true
  },
  "mixins": {
    "CascadeDelete": {
      "relations": [
        "users"
      ]
    },
    "Count": {
      "relations": true,
      "total": true,
      "totalWhitelist": [
        "find",
        "prototype.__get__users"
      ]
    },
    "ExtQuery": {}
  },
  "properties": {
    "id": {
      "type": "string",
      "id": true
    },
    "name": {
      "type": "string",
      "required": true
    },
    "description": {
      "type": "string"
    },
    "parentId": {
      "type": "string",
      "default": ""
    },
    "type": {
      "type": "string",
      "default": "$regularAccount"
    },
    "created": {
      "type": "date"
    }
  },
  "validations": [],
  "relations": {
    "users": {
      "type": "hasMany",
      "model": "user",
      "foreignKey": "accountId"
    },
    "parent": {
      "type": "hasMany",
      "model": "Account",
      "foreignKey": "parentId"
    }
  },
  "acls": [
    {
      "accessType": "*",
      "principalType": "ROLE",
      "principalId": "$owner",
      "permission": "ALLOW"
    },
    {
      "accessType": "*",
      "principalType": "ROLE",
      "principalId": "$everyone",
      "permission": "DENY"
    },
    {
      "accessType": "*",
      "principalType": "ROLE",
      "principalId": "Administrator",
      "permission": "ALLOW"
    }
  ],
  "methods": {}
}
